%YAML 1.1
%TAG !u! tag:unity3d.com,2011:
--- !u!1045 &1
EditorBuildSettings:
  m_ObjectHideFlags: 0
  serializedVersion: 2
  m_Scenes:
  - enabled: 1
    path: Assets/Scenes/Menu.unity
    guid: 2cda990e2423bbf4892e6590ba056729
  - enabled: 1
    path: Assets/Scenes/Level_1.unity
    guid: cc95e84ca8a00f24baf626518854b5eb
  - enabled: 1
    path: Assets/Scenes/Level_2.unity
    guid: 3b9ace7f62b6dd14a88149f647cc29b8
  - enabled: 1
    path: Assets/Scenes/Level_3.unity
    guid: 1684ec5fd5fcdca4489962b0fab7c492
  - enabled: 1
    path: Assets/Scenes/Level_4.unity
    guid: e852a78370d5e9e46ae1ed853edcb5a1
  - enabled: 1
    path: Assets/Scenes/Level_5.unity
    guid: 64265a2e7b0870d448c8f10b159e3904
  - enabled: 1
    path: Assets/Scenes/Level_6.unity
    guid: 80682a3220963184ab9e3fe99f0d03aa
  - enabled: 1
    path: Assets/Scenes/Level_7.unity
    guid: 7acede8b168f522419d3aa6a12280428
  - enabled: 1
    path: Assets/Scenes/Level_8.unity
    guid: ccc5de912ff0c554c9cdc33b202d9536
  - enabled: 1
    path: Assets/Scenes/Level_9.unity
    guid: ad48fed3aa53dcd4197f7814b434b0c7
  m_configObjects: {}
