%YAML 1.1
%TAG !u! tag:unity3d.com,2011:
--- !u!1001 &3568096897585754463
PrefabInstance:
  m_ObjectHideFlags: 0
  serializedVersion: 2
  m_Modification:
    m_TransformParent: {fileID: 0}
    m_Modifications:
    - target: {fileID: 8309460003019851560, guid: 7ee8969c0c7bdce4bb0cc287755956d7,
        type: 3}
      propertyPath: m_LocalPosition.x
      value: -3.2
      objectReference: {fileID: 0}
    - target: {fileID: 8309460003019851560, guid: 7ee8969c0c7bdce4bb0cc287755956d7,
        type: 3}
      propertyPath: m_LocalPosition.y
      value: 0.64
      objectReference: {fileID: 0}
    - target: {fileID: 8309460003019851560, guid: 7ee8969c0c7bdce4bb0cc287755956d7,
        type: 3}
      propertyPath: m_LocalPosition.z
      value: 0
      objectReference: {fileID: 0}
    - target: {fileID: 8309460003019851560, guid: 7ee8969c0c7bdce4bb0cc287755956d7,
        type: 3}
      propertyPath: m_LocalRotation.x
      value: -0
      objectReference: {fileID: 0}
    - target: {fileID: 8309460003019851560, guid: 7ee8969c0c7bdce4bb0cc287755956d7,
        type: 3}
      propertyPath: m_LocalRotation.y
      value: -0
      objectReference: {fileID: 0}
    - target: {fileID: 8309460003019851560, guid: 7ee8969c0c7bdce4bb0cc287755956d7,
        type: 3}
      propertyPath: m_LocalRotation.z
      value: -0
      objectReference: {fileID: 0}
    - target: {fileID: 8309460003019851560, guid: 7ee8969c0c7bdce4bb0cc287755956d7,
        type: 3}
      propertyPath: m_LocalRotation.w
      value: 1
      objectReference: {fileID: 0}
    - target: {fileID: 8309460003019851560, guid: 7ee8969c0c7bdce4bb0cc287755956d7,
        type: 3}
      propertyPath: m_RootOrder
      value: 0
      objectReference: {fileID: 0}
    - target: {fileID: 8309460003019851560, guid: 7ee8969c0c7bdce4bb0cc287755956d7,
        type: 3}
      propertyPath: m_LocalEulerAnglesHint.x
      value: 0
      objectReference: {fileID: 0}
    - target: {fileID: 8309460003019851560, guid: 7ee8969c0c7bdce4bb0cc287755956d7,
        type: 3}
      propertyPath: m_LocalEulerAnglesHint.y
      value: 0
      objectReference: {fileID: 0}
    - target: {fileID: 8309460003019851560, guid: 7ee8969c0c7bdce4bb0cc287755956d7,
        type: 3}
      propertyPath: m_LocalEulerAnglesHint.z
      value: 0
      objectReference: {fileID: 0}
    - target: {fileID: 8309460003019851561, guid: 7ee8969c0c7bdce4bb0cc287755956d7,
        type: 3}
      propertyPath: m_Name
      value: GreenWall
      objectReference: {fileID: 0}
    - target: {fileID: 8309460003019851563, guid: 7ee8969c0c7bdce4bb0cc287755956d7,
        type: 3}
      propertyPath: m_Sprite
      value: 
      objectReference: {fileID: -6483099063355646678, guid: a9c8066d0426f414881671050f452054,
        type: 3}
    m_RemovedComponents: []
  m_SourcePrefab: {fileID: 100100000, guid: 7ee8969c0c7bdce4bb0cc287755956d7, type: 3}
